{
    "KPlugin": {
        "Authors": [
            {
                "Email": "kretschmann@kde.org",
                "Name": "Mark Kretschmann",
                "Name[bg]": "Mark Kretschmann",
                "Name[ca@valencia]": "Mark Kretschmann",
                "Name[ca]": "Mark Kretschmann",
                "Name[cs]": "Mark Kretschmann",
                "Name[eo]": "Mark Kretschmann",
                "Name[es]": "Mark Kretschmann",
                "Name[fr]": "Mark Kretschmann",
                "Name[gl]": "Mark Kretschmann",
                "Name[ia]": "Mark Kretschmann",
                "Name[it]": "Mark Kretschmann",
                "Name[nl]": "Mark Kretschmann",
                "Name[sl]": "Mark Kretschmann",
                "Name[tr]": "Mark Kretschmann",
                "Name[uk]": "Mark Kretschmann",
                "Name[x-test]": "xxMark Kretschmannxx",
                "Name[zh_TW]": "Mark Kretschmann"
            }
        ],
        "Category": "Multimedia",
        "Dependencies": [],
        "Description": "Analyzer applet for Amarok",
        "Description[bg]": "Приставка за анализатор за Amarok",
        "Description[ca@valencia]": "Miniaplicació analitzadora per a Amarok",
        "Description[ca]": "Miniaplicació analitzadora per a l'Amarok",
        "Description[cs]": "Applet analyzeru pro AmaroK",
        "Description[eo]": "Analizil-apleto por Amarok",
        "Description[es]": "Miniaplicación de análisis para Amarok",
        "Description[fr]": "Applet d'analyseur pour Amarok",
        "Description[gl]": "Trebello de analizador para Amarok.",
        "Description[it]": "Applet dell'analizzatore per Amarok",
        "Description[nl]": "Analyse-applet voor Amarok",
        "Description[sl]": "Applet analizatorja za Amarok",
        "Description[tr]": "Amarok için çözümleyici uygulamacığı",
        "Description[uk]": "Аплет аналізатора для Amarok",
        "Description[x-test]": "xxAnalyzer applet for Amarokxx",
        "Description[zh_TW]": "Amarok 的分析器小程式",
        "EnabledByDefault": true,
        "Icon": "view-media-analyzer-amarok",
        "Id": "org.kde.amarok.analyzer",
        "License": "GPL",
        "Name": "Analyzer",
        "Name[bg]": "Анализатор",
        "Name[bs]": "Analizator",
        "Name[ca@valencia]": "Analitzador",
        "Name[ca]": "Analitzador",
        "Name[cs]": "Analyzátor",
        "Name[da]": "Analysator",
        "Name[de]": "Analysator",
        "Name[el]": "Αναλυτής",
        "Name[en_GB]": "Analyser",
        "Name[eo]": "Analizilo",
        "Name[es]": "Analizador",
        "Name[et]": "Analüüsija",
        "Name[eu]": "Analizatzailea",
        "Name[fi]": "Analysaattori",
        "Name[fr]": "Analyseur",
        "Name[gl]": "Analizador",
        "Name[hu]": "Elemző",
        "Name[ia]": "Analysator",
        "Name[id]": "Analizer",
        "Name[it]": "Analizzatore",
        "Name[ka]": "ანალიზატორი",
        "Name[ko]": "분석기",
        "Name[lt]": "Analizatorius",
        "Name[lv]": "Analizators",
        "Name[nb]": "Analysator",
        "Name[nl]": "Analysator",
        "Name[pl]": "Analizator",
        "Name[pt]": "Analisador",
        "Name[pt_BR]": "Analisador",
        "Name[ro]": "Analizator",
        "Name[sk]": "Analyzátor",
        "Name[sl]": "Preučevalnik",
        "Name[sr@ijekavian]": "Анализатор",
        "Name[sr@ijekavianlatin]": "Analizator",
        "Name[sr@latin]": "Analizator",
        "Name[sr]": "Анализатор",
        "Name[sv]": "Analysator",
        "Name[tr]": "Çözümleyici",
        "Name[uk]": "Аналізатор",
        "Name[x-test]": "xxAnalyzerxx",
        "Name[zh_CN]": "频谱",
        "Name[zh_TW]": "分析器",
        "ServiceTypes": [
            "KPackage/Generic",
            "Amarok/ContextApplet"
        ],
        "Version": "1.0",
        "Website": "https://amarok.kde.org/"
    }
}
